{"timestamp": "2019-08-30T13:50:14+0200", "host": "transip-vps2", "projects": {
"assets": [
{"name": "control-script", "version": "0.0.6"},
{"name": "deploy-script", "version": "1.0.1"}
],
"projects": [
{"name": "proxy-sp", "version": "2.4.3"}
,{"name": "postfix", "version": "1.0.1"}
],
"packages": [
{"name": "GeoIP.x86_64", "version": "1.5.0-11.el7"}
,{"name": "NetworkManager.x86_64", "version": "1:1.10.2-16.el7_5"}
,{"name": "NetworkManager-libnm.x86_64", "version": "1:1.10.2-16.el7_5"}
,{"name": "NetworkManager-team.x86_64", "version": "1:1.10.2-16.el7_5"}
,{"name": "NetworkManager-tui.x86_64", "version": "1:1.10.2-16.el7_5"}
,{"name": "acl.x86_64", "version": "2.2.51-14.el7"}
,{"name": "aic94xx-firmware.noarch", "version": "30-6.el7"}
,{"name": "alsa-firmware.noarch", "version": "1.0.28-2.el7"}
,{"name": "alsa-lib.x86_64", "version": "1.1.4.1-2.el7"}
,{"name": "alsa-tools-firmware.x86_64", "version": "1.1.0-1.el7"}
,{"name": "at.x86_64", "version": "3.1.13-23.el7"}
,{"name": "audit.x86_64", "version": "2.8.1-3.el7_5.1"}
,{"name": "audit-libs.x86_64", "version": "2.8.1-3.el7_5.1"}
,{"name": "audit-libs-python.x86_64", "version": "2.8.1-3.el7_5.1"}
,{"name": "avahi-libs.x86_64", "version": "0.6.31-19.el7"}
,{"name": "basesystem.noarch", "version": "10.0-7.el7.centos"}
,{"name": "bash.x86_64", "version": "4.2.46-30.el7"}
,{"name": "bc.x86_64", "version": "1.06.95-13.el7"}
,{"name": "bind-libs-lite.x86_64", "version": "32:9.9.4-61.el7"}
,{"name": "bind-license.noarch", "version": "32:9.9.4-61.el7"}
,{"name": "binutils.x86_64", "version": "2.27-28.base.el7_5.1"}
,{"name": "biosdevname.x86_64", "version": "0.7.3-1.el7"}
,{"name": "btrfs-progs.x86_64", "version": "4.9.1-1.el7"}
,{"name": "bzip2-libs.x86_64", "version": "1.0.6-13.el7"}
,{"name": "ca-certificates.noarch", "version": "2018.2.22-70.0.el7_5"}
,{"name": "centos-logos.noarch", "version": "70.0.6-3.el7.centos"}
,{"name": "centos-release.x86_64", "version": "7-5.1804.4.el7.centos"}
,{"name": "checkpolicy.x86_64", "version": "2.5-6.el7"}
,{"name": "chkconfig.x86_64", "version": "1.7.4-1.el7"}
,{"name": "chrony.x86_64", "version": "3.2-2.el7"}
,{"name": "collectd.x86_64", "version": "5.8.0-4.el7"}
,{"name": "collectd-nginx.x86_64", "version": "5.8.0-4.el7"}
,{"name": "container-selinux.noarch", "version": "2:2.66-1.el7"}
,{"name": "coreutils.x86_64", "version": "8.22-21.el7"}
,{"name": "cpio.x86_64", "version": "2.11-27.el7"}
,{"name": "cracklib.x86_64", "version": "2.9.0-11.el7"}
,{"name": "cracklib-dicts.x86_64", "version": "2.9.0-11.el7"}
,{"name": "cronie.x86_64", "version": "1.4.11-19.el7"}
,{"name": "cronie-anacron.x86_64", "version": "1.4.11-19.el7"}
,{"name": "crontabs.noarch", "version": "1.11-6.20121102git.el7"}
,{"name": "cryptsetup-libs.x86_64", "version": "1.7.4-4.el7"}
,{"name": "cups-client.x86_64", "version": "1:1.6.3-35.el7"}
,{"name": "cups-libs.x86_64", "version": "1:1.6.3-35.el7"}
,{"name": "curl.x86_64", "version": "7.29.0-46.el7"}
,{"name": "cyrus-sasl.x86_64", "version": "2.1.26-23.el7"}
,{"name": "cyrus-sasl-lib.x86_64", "version": "2.1.26-23.el7"}
,{"name": "cyrus-sasl-plain.x86_64", "version": "2.1.26-23.el7"}
,{"name": "dbus.x86_64", "version": "1:1.10.24-7.el7"}
,{"name": "dbus-glib.x86_64", "version": "0.100-7.el7"}
,{"name": "dbus-libs.x86_64", "version": "1:1.10.24-7.el7"}
,{"name": "dbus-python.x86_64", "version": "1.1.1-9.el7"}
,{"name": "device-mapper.x86_64", "version": "7:1.02.146-4.el7"}
,{"name": "device-mapper-event.x86_64", "version": "7:1.02.146-4.el7"}
,{"name": "device-mapper-event-libs.x86_64", "version": "7:1.02.146-4.el7"}
,{"name": "device-mapper-libs.x86_64", "version": "7:1.02.146-4.el7"}
,{"name": "device-mapper-persistent-data.x86_64", "version": "0.7.3-3.el7"}
,{"name": "dhclient.x86_64", "version": "12:4.2.5-68.el7.centos.1"}
,{"name": "dhcp-common.x86_64", "version": "12:4.2.5-68.el7.centos.1"}
,{"name": "dhcp-libs.x86_64", "version": "12:4.2.5-68.el7.centos.1"}
,{"name": "diffutils.x86_64", "version": "3.3-4.el7"}
,{"name": "dmidecode.x86_64", "version": "1:3.0-5.el7"}
,{"name": "docker-ce.x86_64", "version": "18.06.0.ce-3.el7"}
,{"name": "dracut.x86_64", "version": "033-535.el7_5.1"}
,{"name": "dracut-config-rescue.x86_64", "version": "033-535.el7_5.1"}
,{"name": "dracut-network.x86_64", "version": "033-535.el7_5.1"}
,{"name": "e2fsprogs.x86_64", "version": "1.42.9-12.el7_5"}
,{"name": "e2fsprogs-libs.x86_64", "version": "1.42.9-12.el7_5"}
,{"name": "ebtables.x86_64", "version": "2.0.10-16.el7"}
,{"name": "ed.x86_64", "version": "1.9-4.el7"}
,{"name": "elfutils-default-yama-scope.noarch", "version": "0.170-4.el7"}
,{"name": "elfutils-libelf.x86_64", "version": "0.170-4.el7"}
,{"name": "elfutils-libs.x86_64", "version": "0.170-4.el7"}
,{"name": "epel-release.noarch", "version": "7-11"}
,{"name": "ethtool.x86_64", "version": "2:4.8-7.el7"}
,{"name": "expat.x86_64", "version": "2.1.0-10.el7_3"}
,{"name": "file.x86_64", "version": "5.11-33.el7"}
,{"name": "file-libs.x86_64", "version": "5.11-33.el7"}
,{"name": "filesystem.x86_64", "version": "3.2-25.el7"}
,{"name": "findutils.x86_64", "version": "1:4.5.11-5.el7"}
,{"name": "fipscheck.x86_64", "version": "1.4.1-6.el7"}
,{"name": "fipscheck-lib.x86_64", "version": "1.4.1-6.el7"}
,{"name": "firewalld.noarch", "version": "0.4.4.4-14.el7"}
,{"name": "firewalld-filesystem.noarch", "version": "0.4.4.4-14.el7"}
,{"name": "freetype.x86_64", "version": "2.4.11-15.el7"}
,{"name": "fxload.x86_64", "version": "2002_04_11-16.el7"}
,{"name": "gawk.x86_64", "version": "4.0.2-4.el7_3.1"}
,{"name": "gdbm.x86_64", "version": "1.10-8.el7"}
,{"name": "gettext.x86_64", "version": "0.19.8.1-2.el7"}
,{"name": "gettext-libs.x86_64", "version": "0.19.8.1-2.el7"}
,{"name": "git.x86_64", "version": "1.8.3.1-14.el7_5"}
,{"name": "glib2.x86_64", "version": "2.54.2-2.el7"}
,{"name": "glibc.x86_64", "version": "2.17-222.el7"}
,{"name": "glibc-common.x86_64", "version": "2.17-222.el7"}
,{"name": "gmp.x86_64", "version": "1:6.0.0-15.el7"}
,{"name": "gnupg2.x86_64", "version": "2.0.22-5.el7_5"}
,{"name": "gobject-introspection.x86_64", "version": "1.50.0-1.el7"}
,{"name": "gpgme.x86_64", "version": "1.3.2-5.el7"}
,{"name": "grep.x86_64", "version": "2.20-3.el7"}
,{"name": "groff-base.x86_64", "version": "1.22.2-8.el7"}
,{"name": "grub2.x86_64", "version": "1:2.02-0.65.el7.centos.2"}
,{"name": "grub2-common.noarch", "version": "1:2.02-0.65.el7.centos.2"}
,{"name": "grub2-pc.x86_64", "version": "1:2.02-0.65.el7.centos.2"}
,{"name": "grub2-pc-modules.noarch", "version": "1:2.02-0.65.el7.centos.2"}
,{"name": "grub2-tools.x86_64", "version": "1:2.02-0.65.el7.centos.2"}
,{"name": "grub2-tools-extra.x86_64", "version": "1:2.02-0.65.el7.centos.2"}
,{"name": "grub2-tools-minimal.x86_64", "version": "1:2.02-0.65.el7.centos.2"}
,{"name": "grubby.x86_64", "version": "8.28-23.el7"}
,{"name": "gzip.x86_64", "version": "1.5-10.el7"}
,{"name": "hardlink.x86_64", "version": "1:1.0-19.el7"}
,{"name": "hesiod.x86_64", "version": "3.2.1-3.el7"}
,{"name": "hostname.x86_64", "version": "3.13-3.el7"}
,{"name": "htop.x86_64", "version": "2.2.0-1.el7"}
,{"name": "hwdata.x86_64", "version": "0.252-8.8.el7"}
,{"name": "info.x86_64", "version": "5.1-5.el7"}
,{"name": "initscripts.x86_64", "version": "9.49.41-1.el7_5.1"}
,{"name": "iproute.x86_64", "version": "4.11.0-14.el7"}
,{"name": "iprutils.x86_64", "version": "2.4.15.1-1.el7"}
,{"name": "ipset.x86_64", "version": "6.29-1.el7"}
,{"name": "ipset-libs.x86_64", "version": "6.29-1.el7"}
,{"name": "iptables.x86_64", "version": "1.4.21-24.1.el7_5"}
,{"name": "iputils.x86_64", "version": "20160308-10.el7"}
,{"name": "irqbalance.x86_64", "version": "3:1.0.7-11.el7"}
,{"name": "ivtv-firmware.noarch", "version": "2:20080701-26.el7"}
,{"name": "iwl100-firmware.noarch", "version": "39.31.5.1-62.2.el7_5"}
,{"name": "iwl1000-firmware.noarch", "version": "1:39.31.5.1-62.2.el7_5"}
,{"name": "iwl105-firmware.noarch", "version": "18.168.6.1-62.2.el7_5"}
,{"name": "iwl135-firmware.noarch", "version": "18.168.6.1-62.2.el7_5"}
,{"name": "iwl2000-firmware.noarch", "version": "18.168.6.1-62.2.el7_5"}
,{"name": "iwl2030-firmware.noarch", "version": "18.168.6.1-62.2.el7_5"}
,{"name": "iwl3160-firmware.noarch", "version": "22.0.7.0-62.2.el7_5"}
,{"name": "iwl3945-firmware.noarch", "version": "15.32.2.9-62.2.el7_5"}
,{"name": "iwl4965-firmware.noarch", "version": "228.61.2.24-62.2.el7_5"}
,{"name": "iwl5000-firmware.noarch", "version": "8.83.5.1_1-62.2.el7_5"}
,{"name": "iwl5150-firmware.noarch", "version": "8.24.2.2-62.2.el7_5"}
,{"name": "iwl6000-firmware.noarch", "version": "9.221.4.1-62.2.el7_5"}
,{"name": "iwl6000g2a-firmware.noarch", "version": "17.168.5.3-62.2.el7_5"}
,{"name": "iwl6000g2b-firmware.noarch", "version": "17.168.5.2-62.2.el7_5"}
,{"name": "iwl6050-firmware.noarch", "version": "41.28.5.1-62.2.el7_5"}
,{"name": "iwl7260-firmware.noarch", "version": "22.0.7.0-62.2.el7_5"}
,{"name": "iwl7265-firmware.noarch", "version": "22.0.7.0-62.2.el7_5"}
,{"name": "jansson.x86_64", "version": "2.10-1.el7"}
,{"name": "jq.x86_64", "version": "1.5-1.el7"}
,{"name": "kbd.x86_64", "version": "1.15.5-13.el7"}
,{"name": "kbd-legacy.noarch", "version": "1.15.5-13.el7"}
,{"name": "kbd-misc.noarch", "version": "1.15.5-13.el7"}
,{"name": "kernel.x86_64", "version": "3.10.0-862.el7"}
,{"name": "kernel.x86_64", "version": "3.10.0-862.11.6.el7"}
,{"name": "kernel-tools.x86_64", "version": "3.10.0-862.11.6.el7"}
,{"name": "kernel-tools-libs.x86_64", "version": "3.10.0-862.11.6.el7"}
,{"name": "kexec-tools.x86_64", "version": "2.0.15-13.el7"}
,{"name": "keyutils-libs.x86_64", "version": "1.5.8-3.el7"}
,{"name": "kmod.x86_64", "version": "20-21.el7"}
,{"name": "kmod-libs.x86_64", "version": "20-21.el7"}
,{"name": "kpartx.x86_64", "version": "0.4.9-119.el7_5.1"}
,{"name": "krb5-libs.x86_64", "version": "1.15.1-19.el7"}
,{"name": "less.x86_64", "version": "458-9.el7"}
,{"name": "libacl.x86_64", "version": "2.2.51-14.el7"}
,{"name": "libaio.x86_64", "version": "0.3.109-13.el7"}
,{"name": "libassuan.x86_64", "version": "2.1.0-3.el7"}
,{"name": "libattr.x86_64", "version": "2.4.46-13.el7"}
,{"name": "libblkid.x86_64", "version": "2.23.2-52.el7_5.1"}
,{"name": "libcap.x86_64", "version": "2.22-9.el7"}
,{"name": "libcap-ng.x86_64", "version": "0.7.5-4.el7"}
,{"name": "libcgroup.x86_64", "version": "0.41-15.el7"}
,{"name": "libcom_err.x86_64", "version": "1.42.9-12.el7_5"}
,{"name": "libcroco.x86_64", "version": "0.6.11-1.el7"}
,{"name": "libcurl.x86_64", "version": "7.29.0-46.el7"}
,{"name": "libdaemon.x86_64", "version": "0.14-7.el7"}
,{"name": "libdb.x86_64", "version": "5.3.21-24.el7"}
,{"name": "libdb-utils.x86_64", "version": "5.3.21-24.el7"}
,{"name": "libdrm.x86_64", "version": "2.4.83-2.el7"}
,{"name": "libedit.x86_64", "version": "3.0-12.20121213cvs.el7"}
,{"name": "libestr.x86_64", "version": "0.1.9-2.el7"}
,{"name": "libevent.x86_64", "version": "2.0.21-4.el7"}
,{"name": "libfastjson.x86_64", "version": "0.99.4-2.el7"}
,{"name": "libffi.x86_64", "version": "3.0.13-18.el7"}
,{"name": "libgcc.x86_64", "version": "4.8.5-28.el7_5.1"}
,{"name": "libgcrypt.x86_64", "version": "1.5.3-14.el7"}
,{"name": "libgnome-keyring.x86_64", "version": "3.12.0-1.el7"}
,{"name": "libgomp.x86_64", "version": "4.8.5-28.el7_5.1"}
,{"name": "libgpg-error.x86_64", "version": "1.12-3.el7"}
,{"name": "libidn.x86_64", "version": "1.28-4.el7"}
,{"name": "libmnl.x86_64", "version": "1.0.3-7.el7"}
,{"name": "libmount.x86_64", "version": "2.23.2-52.el7_5.1"}
,{"name": "libndp.x86_64", "version": "1.2-7.el7"}
,{"name": "libnetfilter_conntrack.x86_64", "version": "1.0.6-1.el7_3"}
,{"name": "libnfnetlink.x86_64", "version": "1.0.1-4.el7"}
,{"name": "libnl3.x86_64", "version": "3.2.28-4.el7"}
,{"name": "libnl3-cli.x86_64", "version": "3.2.28-4.el7"}
,{"name": "libpcap.x86_64", "version": "14:1.5.3-11.el7"}
,{"name": "libpciaccess.x86_64", "version": "0.14-1.el7"}
,{"name": "libpipeline.x86_64", "version": "1.2.3-3.el7"}
,{"name": "libpwquality.x86_64", "version": "1.2.3-5.el7"}
,{"name": "libseccomp.x86_64", "version": "2.3.1-3.el7"}
,{"name": "libselinux.x86_64", "version": "2.5-12.el7"}
,{"name": "libselinux-python.x86_64", "version": "2.5-12.el7"}
,{"name": "libselinux-utils.x86_64", "version": "2.5-12.el7"}
,{"name": "libsemanage.x86_64", "version": "2.5-11.el7"}
,{"name": "libsemanage-python.x86_64", "version": "2.5-11.el7"}
,{"name": "libsepol.x86_64", "version": "2.5-8.1.el7"}
,{"name": "libss.x86_64", "version": "1.42.9-12.el7_5"}
,{"name": "libssh2.x86_64", "version": "1.4.3-10.el7_2.1"}
,{"name": "libstdc++.x86_64", "version": "4.8.5-28.el7_5.1"}
,{"name": "libsysfs.x86_64", "version": "2.1.0-16.el7"}
,{"name": "libtasn1.x86_64", "version": "4.10-1.el7"}
,{"name": "libteam.x86_64", "version": "1.27-4.el7"}
,{"name": "libtool-ltdl.x86_64", "version": "2.4.2-22.el7_3"}
,{"name": "libunistring.x86_64", "version": "0.9.3-9.el7"}
,{"name": "libuser.x86_64", "version": "0.60-9.el7"}
,{"name": "libutempter.x86_64", "version": "1.1.6-4.el7"}
,{"name": "libuuid.x86_64", "version": "2.23.2-52.el7_5.1"}
,{"name": "libverto.x86_64", "version": "0.2.5-4.el7"}
,{"name": "libxml2.x86_64", "version": "2.9.1-6.el7_2.3"}
,{"name": "libxml2-python.x86_64", "version": "2.9.1-6.el7_2.3"}
,{"name": "libxslt.x86_64", "version": "1.1.28-5.el7"}
,{"name": "linux-firmware.noarch", "version": "20180220-62.2.git6d51311.el7_5"}
,{"name": "logrotate.x86_64", "version": "3.8.6-15.el7"}
,{"name": "lshw.x86_64", "version": "B.02.18-12.el7"}
,{"name": "lsscsi.x86_64", "version": "0.27-6.el7"}
,{"name": "lua.x86_64", "version": "5.1.4-15.el7"}
,{"name": "lvm2.x86_64", "version": "7:2.02.177-4.el7"}
,{"name": "lvm2-libs.x86_64", "version": "7:2.02.177-4.el7"}
,{"name": "lz4.x86_64", "version": "1.7.5-2.el7"}
,{"name": "lzo.x86_64", "version": "2.06-8.el7"}
,{"name": "m4.x86_64", "version": "1.4.16-10.el7"}
,{"name": "mailx.x86_64", "version": "12.5-19.el7"}
,{"name": "make.x86_64", "version": "1:3.82-23.el7"}
,{"name": "man-db.x86_64", "version": "2.6.3-9.el7"}
,{"name": "mariadb-libs.x86_64", "version": "1:5.5.60-1.el7_5"}
,{"name": "microcode_ctl.x86_64", "version": "2:2.1-29.10.el7_5"}
,{"name": "mozjs17.x86_64", "version": "17.0.0-20.el7"}
,{"name": "ncurses.x86_64", "version": "5.9-14.20130511.el7_4"}
,{"name": "ncurses-base.noarch", "version": "5.9-14.20130511.el7_4"}
,{"name": "ncurses-libs.x86_64", "version": "5.9-14.20130511.el7_4"}
,{"name": "newt.x86_64", "version": "0.52.15-4.el7"}
,{"name": "nmap-ncat.x86_64", "version": "2:6.40-16.el7"}
,{"name": "nspr.x86_64", "version": "4.19.0-1.el7_5"}
,{"name": "nss.x86_64", "version": "3.36.0-5.el7_5"}
,{"name": "nss-pem.x86_64", "version": "1.0.3-4.el7"}
,{"name": "nss-softokn.x86_64", "version": "3.36.0-5.el7_5"}
,{"name": "nss-softokn-freebl.x86_64", "version": "3.36.0-5.el7_5"}
,{"name": "nss-sysinit.x86_64", "version": "3.36.0-5.el7_5"}
,{"name": "nss-tools.x86_64", "version": "3.36.0-5.el7_5"}
,{"name": "nss-util.x86_64", "version": "3.36.0-1.el7_5"}
,{"name": "numactl-libs.x86_64", "version": "2.0.9-7.el7"}
,{"name": "oniguruma.x86_64", "version": "5.9.5-3.el7"}
,{"name": "openldap.x86_64", "version": "2.4.44-15.el7_5"}
,{"name": "openscap.x86_64", "version": "1.2.16-8.el7_5"}
,{"name": "openscap-scanner.x86_64", "version": "1.2.16-8.el7_5"}
,{"name": "openssh.x86_64", "version": "7.4p1-16.el7"}
,{"name": "openssh-clients.x86_64", "version": "7.4p1-16.el7"}
,{"name": "openssh-server.x86_64", "version": "7.4p1-16.el7"}
,{"name": "openssl-libs.x86_64", "version": "1:1.0.2k-12.el7"}
,{"name": "os-prober.x86_64", "version": "1.58-9.el7"}
,{"name": "p11-kit.x86_64", "version": "0.23.5-3.el7"}
,{"name": "p11-kit-trust.x86_64", "version": "0.23.5-3.el7"}
,{"name": "pam.x86_64", "version": "1.1.8-22.el7"}
,{"name": "parted.x86_64", "version": "3.1-29.el7"}
,{"name": "passwd.x86_64", "version": "0.79-4.el7"}
,{"name": "patch.x86_64", "version": "2.7.1-10.el7_5"}
,{"name": "pciutils-libs.x86_64", "version": "3.5.1-3.el7"}
,{"name": "pcre.x86_64", "version": "8.32-17.el7"}
,{"name": "perl.x86_64", "version": "4:5.16.3-292.el7"}
,{"name": "perl-Carp.noarch", "version": "1.26-244.el7"}
,{"name": "perl-Encode.x86_64", "version": "2.51-7.el7"}
,{"name": "perl-Error.noarch", "version": "1:0.17020-2.el7"}
,{"name": "perl-Exporter.noarch", "version": "5.68-3.el7"}
,{"name": "perl-File-Path.noarch", "version": "2.09-2.el7"}
,{"name": "perl-File-Temp.noarch", "version": "0.23.01-3.el7"}
,{"name": "perl-Filter.x86_64", "version": "1.49-3.el7"}
,{"name": "perl-Getopt-Long.noarch", "version": "2.40-3.el7"}
,{"name": "perl-Git.noarch", "version": "1.8.3.1-14.el7_5"}
,{"name": "perl-HTTP-Tiny.noarch", "version": "0.033-3.el7"}
,{"name": "perl-PathTools.x86_64", "version": "3.40-5.el7"}
,{"name": "perl-Pod-Escapes.noarch", "version": "1:1.04-292.el7"}
,{"name": "perl-Pod-Perldoc.noarch", "version": "3.20-4.el7"}
,{"name": "perl-Pod-Simple.noarch", "version": "1:3.28-4.el7"}
,{"name": "perl-Pod-Usage.noarch", "version": "1.63-3.el7"}
,{"name": "perl-Scalar-List-Utils.x86_64", "version": "1.27-248.el7"}
,{"name": "perl-Socket.x86_64", "version": "2.010-4.el7"}
,{"name": "perl-Storable.x86_64", "version": "2.45-3.el7"}
,{"name": "perl-TermReadKey.x86_64", "version": "2.30-20.el7"}
,{"name": "perl-Text-ParseWords.noarch", "version": "3.29-4.el7"}
,{"name": "perl-Time-HiRes.x86_64", "version": "4:1.9725-3.el7"}
,{"name": "perl-Time-Local.noarch", "version": "1.2300-2.el7"}
,{"name": "perl-constant.noarch", "version": "1.27-2.el7"}
,{"name": "perl-libs.x86_64", "version": "4:5.16.3-292.el7"}
,{"name": "perl-macros.x86_64", "version": "4:5.16.3-292.el7"}
,{"name": "perl-parent.noarch", "version": "1:0.225-244.el7"}
,{"name": "perl-podlators.noarch", "version": "2.5.1-3.el7"}
,{"name": "perl-threads.x86_64", "version": "1.87-4.el7"}
,{"name": "perl-threads-shared.x86_64", "version": "1.43-6.el7"}
,{"name": "pinentry.x86_64", "version": "0.8.1-17.el7"}
,{"name": "pkgconfig.x86_64", "version": "1:0.27.1-4.el7"}
,{"name": "plymouth.x86_64", "version": "0.8.9-0.31.20140113.el7.centos"}
,{"name": "plymouth-core-libs.x86_64", "version": "0.8.9-0.31.20140113.el7.centos"}
,{"name": "plymouth-scripts.x86_64", "version": "0.8.9-0.31.20140113.el7.centos"}
,{"name": "policycoreutils.x86_64", "version": "2.5-22.el7"}
,{"name": "policycoreutils-python.x86_64", "version": "2.5-22.el7"}
,{"name": "polkit.x86_64", "version": "0.112-14.el7"}
,{"name": "polkit-pkla-compat.x86_64", "version": "0.1-4.el7"}
,{"name": "popt.x86_64", "version": "1.13-16.el7"}
,{"name": "postfix.x86_64", "version": "2:2.10.1-6.el7"}
,{"name": "procmail.x86_64", "version": "3.22-36.el7_4.1"}
,{"name": "procps-ng.x86_64", "version": "3.3.10-17.el7_5.2"}
,{"name": "psmisc.x86_64", "version": "22.20-15.el7"}
,{"name": "pth.x86_64", "version": "2.0.7-23.el7"}
,{"name": "pygpgme.x86_64", "version": "0.3-9.el7"}
,{"name": "pyliblzma.x86_64", "version": "0.5.3-11.el7"}
,{"name": "python.x86_64", "version": "2.7.5-69.el7_5"}
,{"name": "python-IPy.noarch", "version": "0.75-6.el7"}
,{"name": "python-chardet.noarch", "version": "2.2.1-1.el7_1"}
,{"name": "python-configobj.noarch", "version": "4.7.2-7.el7"}
,{"name": "python-decorator.noarch", "version": "3.4.0-3.el7"}
,{"name": "python-firewall.noarch", "version": "0.4.4.4-14.el7"}
,{"name": "python-gobject-base.x86_64", "version": "3.22.0-1.el7_4.1"}
,{"name": "python-iniparse.noarch", "version": "0.4-9.el7"}
,{"name": "python-kitchen.noarch", "version": "1.1.1-5.el7"}
,{"name": "python-libs.x86_64", "version": "2.7.5-69.el7_5"}
,{"name": "python-linux-procfs.noarch", "version": "0.4.9-3.el7"}
,{"name": "python-perf.x86_64", "version": "3.10.0-862.11.6.el7"}
,{"name": "python-pycurl.x86_64", "version": "7.19.0-19.el7"}
,{"name": "python-pyudev.noarch", "version": "0.15-9.el7"}
,{"name": "python-schedutils.x86_64", "version": "0.4-6.el7"}
,{"name": "python-slip.noarch", "version": "0.4.0-4.el7"}
,{"name": "python-slip-dbus.noarch", "version": "0.4.0-4.el7"}
,{"name": "python-urlgrabber.noarch", "version": "3.10-8.el7"}
,{"name": "pyxattr.x86_64", "version": "0.5.1-5.el7"}
,{"name": "qemu-guest-agent.x86_64", "version": "10:2.8.0-2.el7_5.1"}
,{"name": "qrencode-libs.x86_64", "version": "3.4.1-3.el7"}
,{"name": "readline.x86_64", "version": "6.2-10.el7"}
,{"name": "redhat-lsb-core.x86_64", "version": "4.1-27.el7.centos.1"}
,{"name": "redhat-lsb-submod-security.x86_64", "version": "4.1-27.el7.centos.1"}
,{"name": "rootfiles.noarch", "version": "8.1-11.el7"}
,{"name": "rpm.x86_64", "version": "4.11.3-32.el7"}
,{"name": "rpm-build-libs.x86_64", "version": "4.11.3-32.el7"}
,{"name": "rpm-libs.x86_64", "version": "4.11.3-32.el7"}
,{"name": "rpm-python.x86_64", "version": "4.11.3-32.el7"}
,{"name": "rsync.x86_64", "version": "3.1.2-4.el7"}
,{"name": "rsyslog.x86_64", "version": "8.24.0-16.el7_5.4"}
,{"name": "scap-security-guide.noarch", "version": "0.1.36-9.el7.centos"}
,{"name": "sed.x86_64", "version": "4.2.2-5.el7"}
,{"name": "selinux-policy.noarch", "version": "3.13.1-192.el7_5.6"}
,{"name": "selinux-policy-targeted.noarch", "version": "3.13.1-192.el7_5.6"}
,{"name": "sendmail.x86_64", "version": "8.14.7-5.el7"}
,{"name": "setools-libs.x86_64", "version": "3.3.8-2.el7"}
,{"name": "setup.noarch", "version": "2.8.71-9.el7"}
,{"name": "sg3_utils.x86_64", "version": "1.37-12.el7"}
,{"name": "sg3_utils-libs.x86_64", "version": "1.37-12.el7"}
,{"name": "shadow-utils.x86_64", "version": "2:4.1.5.1-24.el7"}
,{"name": "shared-mime-info.x86_64", "version": "1.8-4.el7"}
,{"name": "slang.x86_64", "version": "2.2.4-11.el7"}
,{"name": "snappy.x86_64", "version": "1.1.0-3.el7"}
,{"name": "spax.x86_64", "version": "1.5.2-13.el7"}
,{"name": "sqlite.x86_64", "version": "3.7.17-8.el7"}
,{"name": "sudo.x86_64", "version": "1.8.19p2-14.el7_5"}
,{"name": "systemd.x86_64", "version": "219-57.el7_5.1"}
,{"name": "systemd-libs.x86_64", "version": "219-57.el7_5.1"}
,{"name": "systemd-sysv.x86_64", "version": "219-57.el7_5.1"}
,{"name": "sysvinit-tools.x86_64", "version": "2.88-14.dsf.el7"}
,{"name": "tar.x86_64", "version": "2:1.26-34.el7"}
,{"name": "tcp_wrappers-libs.x86_64", "version": "7.6-77.el7"}
,{"name": "td-agent.x86_64", "version": "3.2.0-0.el7"}
,{"name": "teamd.x86_64", "version": "1.27-4.el7"}
,{"name": "time.x86_64", "version": "1.7-45.el7"}
,{"name": "tmux.x86_64", "version": "1.8-4.el7"}
,{"name": "tree.x86_64", "version": "1.6.0-10.el7"}
,{"name": "tuned.noarch", "version": "2.9.0-1.el7_5.2"}
,{"name": "tzdata.noarch", "version": "2018e-3.el7"}
,{"name": "unzip.x86_64", "version": "6.0-19.el7"}
,{"name": "ustr.x86_64", "version": "1.0.4-16.el7"}
,{"name": "util-linux.x86_64", "version": "2.23.2-52.el7_5.1"}
,{"name": "vim-minimal.x86_64", "version": "2:7.4.160-4.el7"}
,{"name": "virt-what.x86_64", "version": "1.18-4.el7"}
,{"name": "which.x86_64", "version": "2.20-7.el7"}
,{"name": "wpa_supplicant.x86_64", "version": "1:2.6-9.el7"}
,{"name": "xfsprogs.x86_64", "version": "4.5.0-15.el7"}
,{"name": "xml-common.noarch", "version": "0.6.3-39.el7"}
,{"name": "xz.x86_64", "version": "5.2.2-1.el7"}
,{"name": "xz-libs.x86_64", "version": "5.2.2-1.el7"}
,{"name": "yajl.x86_64", "version": "2.0.4-4.el7"}
,{"name": "yum.noarch", "version": "3.4.3-158.el7.centos"}
,{"name": "yum-metadata-parser.x86_64", "version": "1.1.4-10.el7"}
,{"name": "yum-plugin-fastestmirror.noarch", "version": "1.1.31-46.el7_5"}
,{"name": "yum-utils.noarch", "version": "1.1.31-46.el7_5"}
,{"name": "zlib.x86_64", "version": "1.2.7-17.el7"}
,{"name": "docker-compose", "version": "1.22.0"}
],
"updates": [
{"name": "GeoIP.x86_64", "version": "1.5.0-13.el7"}
,{"name": "NetworkManager.x86_64", "version": "1:1.12.0-10.el7_6"}
,{"name": "NetworkManager-libnm.x86_64", "version": "1:1.12.0-10.el7_6"}
,{"name": "NetworkManager-team.x86_64", "version": "1:1.12.0-10.el7_6"}
,{"name": "NetworkManager-tui.x86_64", "version": "1:1.12.0-10.el7_6"}
,{"name": "alsa-lib.x86_64", "version": "1.1.6-2.el7"}
,{"name": "at.x86_64", "version": "3.1.13-24.el7"}
,{"name": "audit.x86_64", "version": "2.8.4-4.el7"}
,{"name": "audit-libs.x86_64", "version": "2.8.4-4.el7"}
,{"name": "audit-libs-python.x86_64", "version": "2.8.4-4.el7"}
,{"name": "bash.x86_64", "version": "4.2.46-31.el7"}
,{"name": "bind-libs-lite.x86_64", "version": "32:9.9.4-74.el7_6.2"}
,{"name": "bind-license.noarch", "version": "32:9.9.4-74.el7_6.2"}
,{"name": "binutils.x86_64", "version": "2.27-34.base.el7"}
,{"name": "centos-release.x86_64", "version": "7-6.1810.2.el7.centos"}
,{"name": "checkpolicy.x86_64", "version": "2.5-8.el7"}
,{"name": "collectd.x86_64", "version": "5.8.1-1.el7"}
,{"name": "collectd-nginx.x86_64", "version": "5.8.1-1.el7"}
,{"name": "container-selinux.noarch", "version": "2:2.107-1.el7_6"}
,{"name": "coreutils.x86_64", "version": "8.22-23.el7"}
,{"name": "cronie.x86_64", "version": "1.4.11-20.el7_6"}
,{"name": "cronie-anacron.x86_64", "version": "1.4.11-20.el7_6"}
,{"name": "cryptsetup-libs.x86_64", "version": "2.0.3-3.el7"}
,{"name": "curl.x86_64", "version": "7.29.0-51.el7_6.3"}
,{"name": "dbus.x86_64", "version": "1:1.10.24-13.el7_6"}
,{"name": "dbus-libs.x86_64", "version": "1:1.10.24-13.el7_6"}
,{"name": "device-mapper.x86_64", "version": "7:1.02.149-10.el7_6.8"}
,{"name": "device-mapper-event.x86_64", "version": "7:1.02.149-10.el7_6.8"}
,{"name": "device-mapper-event-libs.x86_64", "version": "7:1.02.149-10.el7_6.8"}
,{"name": "device-mapper-libs.x86_64", "version": "7:1.02.149-10.el7_6.8"}
,{"name": "dmidecode.x86_64", "version": "1:3.1-2.el7"}
,{"name": "docker-ce.x86_64", "version": "3:19.03.1-3.el7"}
,{"name": "dracut.x86_64", "version": "033-554.el7"}
,{"name": "dracut-config-rescue.x86_64", "version": "033-554.el7"}
,{"name": "dracut-network.x86_64", "version": "033-554.el7"}
,{"name": "e2fsprogs.x86_64", "version": "1.42.9-13.el7"}
,{"name": "e2fsprogs-libs.x86_64", "version": "1.42.9-13.el7"}
,{"name": "elfutils-default-yama-scope.noarch", "version": "0.172-2.el7"}
,{"name": "elfutils-libelf.x86_64", "version": "0.172-2.el7"}
,{"name": "elfutils-libs.x86_64", "version": "0.172-2.el7"}
,{"name": "ethtool.x86_64", "version": "2:4.8-9.el7"}
,{"name": "file.x86_64", "version": "5.11-35.el7"}
,{"name": "file-libs.x86_64", "version": "5.11-35.el7"}
,{"name": "findutils.x86_64", "version": "1:4.5.11-6.el7"}
,{"name": "firewalld.noarch", "version": "0.5.3-5.el7"}
,{"name": "firewalld-filesystem.noarch", "version": "0.5.3-5.el7"}
,{"name": "freetype.x86_64", "version": "2.8-12.el7_6.1"}
,{"name": "git.x86_64", "version": "1.8.3.1-20.el7"}
,{"name": "glib2.x86_64", "version": "2.56.1-4.el7_6"}
,{"name": "glibc.x86_64", "version": "2.17-260.el7_6.6"}
,{"name": "glibc-common.x86_64", "version": "2.17-260.el7_6.6"}
,{"name": "gobject-introspection.x86_64", "version": "1.56.1-1.el7"}
,{"name": "grub2.x86_64", "version": "1:2.02-0.76.el7.centos.1"}
,{"name": "grub2-common.noarch", "version": "1:2.02-0.76.el7.centos.1"}
,{"name": "grub2-pc.x86_64", "version": "1:2.02-0.76.el7.centos.1"}
,{"name": "grub2-pc-modules.noarch", "version": "1:2.02-0.76.el7.centos.1"}
,{"name": "grub2-tools.x86_64", "version": "1:2.02-0.76.el7.centos.1"}
,{"name": "grub2-tools-extra.x86_64", "version": "1:2.02-0.76.el7.centos.1"}
,{"name": "grub2-tools-minimal.x86_64", "version": "1:2.02-0.76.el7.centos.1"}
,{"name": "grubby.x86_64", "version": "8.28-25.el7"}
,{"name": "htop.x86_64", "version": "2.2.0-3.el7"}
,{"name": "hwdata.x86_64", "version": "0.252-9.1.el7"}
,{"name": "initscripts.x86_64", "version": "9.49.46-1.el7"}
,{"name": "iproute.x86_64", "version": "4.11.0-14.el7_6.2"}
,{"name": "iprutils.x86_64", "version": "2.4.16.1-1.el7"}
,{"name": "ipset.x86_64", "version": "6.38-3.el7_6"}
,{"name": "ipset-libs.x86_64", "version": "6.38-3.el7_6"}
,{"name": "iptables.x86_64", "version": "1.4.21-28.el7"}
,{"name": "iwl100-firmware.noarch", "version": "39.31.5.1-69.el7"}
,{"name": "iwl1000-firmware.noarch", "version": "1:39.31.5.1-69.el7"}
,{"name": "iwl105-firmware.noarch", "version": "18.168.6.1-69.el7"}
,{"name": "iwl135-firmware.noarch", "version": "18.168.6.1-69.el7"}
,{"name": "iwl2000-firmware.noarch", "version": "18.168.6.1-69.el7"}
,{"name": "iwl2030-firmware.noarch", "version": "18.168.6.1-69.el7"}
,{"name": "iwl3160-firmware.noarch", "version": "22.0.7.0-69.el7"}
,{"name": "iwl3945-firmware.noarch", "version": "15.32.2.9-69.el7"}
,{"name": "iwl4965-firmware.noarch", "version": "228.61.2.24-69.el7"}
,{"name": "iwl5000-firmware.noarch", "version": "8.83.5.1_1-69.el7"}
,{"name": "iwl5150-firmware.noarch", "version": "8.24.2.2-69.el7"}
,{"name": "iwl6000-firmware.noarch", "version": "9.221.4.1-69.el7"}
,{"name": "iwl6000g2a-firmware.noarch", "version": "17.168.5.3-69.el7"}
,{"name": "iwl6000g2b-firmware.noarch", "version": "17.168.5.2-69.el7"}
,{"name": "iwl6050-firmware.noarch", "version": "41.28.5.1-69.el7"}
,{"name": "iwl7260-firmware.noarch", "version": "22.0.7.0-69.el7"}
,{"name": "iwl7265-firmware.noarch", "version": "22.0.7.0-69.el7"}
,{"name": "kbd.x86_64", "version": "1.15.5-15.el7"}
,{"name": "kbd-legacy.noarch", "version": "1.15.5-15.el7"}
,{"name": "kbd-misc.noarch", "version": "1.15.5-15.el7"}
,{"name": "kernel.x86_64", "version": "3.10.0-957.27.2.el7"}
,{"name": "kernel-tools.x86_64", "version": "3.10.0-957.27.2.el7"}
,{"name": "kernel-tools-libs.x86_64", "version": "3.10.0-957.27.2.el7"}
,{"name": "kexec-tools.x86_64", "version": "2.0.15-21.el7_6.4"}
,{"name": "kmod.x86_64", "version": "20-23.el7"}
,{"name": "kmod-libs.x86_64", "version": "20-23.el7"}
,{"name": "kpartx.x86_64", "version": "0.4.9-123.el7"}
,{"name": "krb5-libs.x86_64", "version": "1.15.1-37.el7_6"}
,{"name": "libblkid.x86_64", "version": "2.23.2-59.el7_6.1"}
,{"name": "libcgroup.x86_64", "version": "0.41-20.el7"}
,{"name": "libcom_err.x86_64", "version": "1.42.9-13.el7"}
,{"name": "libcroco.x86_64", "version": "0.6.12-4.el7"}
,{"name": "libcurl.x86_64", "version": "7.29.0-51.el7_6.3"}
,{"name": "libdrm.x86_64", "version": "2.4.91-3.el7"}
,{"name": "libfastjson.x86_64", "version": "0.99.4-3.el7"}
,{"name": "libgcc.x86_64", "version": "4.8.5-36.el7_6.2"}
,{"name": "libgomp.x86_64", "version": "4.8.5-36.el7_6.2"}
,{"name": "libmount.x86_64", "version": "2.23.2-59.el7_6.1"}
,{"name": "libselinux.x86_64", "version": "2.5-14.1.el7"}
,{"name": "libselinux-python.x86_64", "version": "2.5-14.1.el7"}
,{"name": "libselinux-utils.x86_64", "version": "2.5-14.1.el7"}
,{"name": "libsemanage.x86_64", "version": "2.5-14.el7"}
,{"name": "libsemanage-python.x86_64", "version": "2.5-14.el7"}
,{"name": "libsepol.x86_64", "version": "2.5-10.el7"}
,{"name": "libss.x86_64", "version": "1.42.9-13.el7"}
,{"name": "libssh2.x86_64", "version": "1.4.3-12.el7_6.3"}
,{"name": "libstdc++.x86_64", "version": "4.8.5-36.el7_6.2"}
,{"name": "libteam.x86_64", "version": "1.27-6.el7_6.1"}
,{"name": "libuuid.x86_64", "version": "2.23.2-59.el7_6.1"}
,{"name": "linux-firmware.noarch", "version": "20180911-69.git85c5d90.el7"}
,{"name": "logrotate.x86_64", "version": "3.8.6-17.el7"}
,{"name": "lvm2.x86_64", "version": "7:2.02.180-10.el7_6.8"}
,{"name": "lvm2-libs.x86_64", "version": "7:2.02.180-10.el7_6.8"}
,{"name": "man-db.x86_64", "version": "2.6.3-11.el7"}
,{"name": "microcode_ctl.x86_64", "version": "2:2.1-47.5.el7_6"}
,{"name": "nss.x86_64", "version": "3.36.0-7.1.el7_6"}
,{"name": "nss-pem.x86_64", "version": "1.0.3-5.el7_6.1"}
,{"name": "nss-sysinit.x86_64", "version": "3.36.0-7.1.el7_6"}
,{"name": "nss-tools.x86_64", "version": "3.36.0-7.1.el7_6"}
,{"name": "nss-util.x86_64", "version": "3.36.0-1.1.el7_6"}
,{"name": "openldap.x86_64", "version": "2.4.44-21.el7_6"}
,{"name": "openscap.x86_64", "version": "1.2.17-2.el7"}
,{"name": "openscap-scanner.x86_64", "version": "1.2.17-2.el7"}
,{"name": "openssl-libs.x86_64", "version": "1:1.0.2k-16.el7_6.1"}
,{"name": "perl.x86_64", "version": "4:5.16.3-294.el7_6"}
,{"name": "perl-Git.noarch", "version": "1.8.3.1-20.el7"}
,{"name": "perl-Pod-Escapes.noarch", "version": "1:1.04-294.el7_6"}
,{"name": "perl-libs.x86_64", "version": "4:5.16.3-294.el7_6"}
,{"name": "perl-macros.x86_64", "version": "4:5.16.3-294.el7_6"}
,{"name": "policycoreutils.x86_64", "version": "2.5-29.el7_6.1"}
,{"name": "policycoreutils-python.x86_64", "version": "2.5-29.el7_6.1"}
,{"name": "polkit.x86_64", "version": "0.112-18.el7_6.1"}
,{"name": "postfix.x86_64", "version": "2:2.10.1-7.el7"}
,{"name": "procps-ng.x86_64", "version": "3.3.10-23.el7"}
,{"name": "python.x86_64", "version": "2.7.5-80.el7_6"}
,{"name": "python-firewall.noarch", "version": "0.5.3-5.el7"}
,{"name": "python-libs.x86_64", "version": "2.7.5-80.el7_6"}
,{"name": "python-linux-procfs.noarch", "version": "0.4.9-4.el7"}
,{"name": "python-perf.x86_64", "version": "3.10.0-957.27.2.el7"}
,{"name": "python-urlgrabber.noarch", "version": "3.10-9.el7"}
,{"name": "qemu-guest-agent.x86_64", "version": "10:2.12.0-2.el7"}
,{"name": "rpm.x86_64", "version": "4.11.3-35.el7"}
,{"name": "rpm-build-libs.x86_64", "version": "4.11.3-35.el7"}
,{"name": "rpm-libs.x86_64", "version": "4.11.3-35.el7"}
,{"name": "rpm-python.x86_64", "version": "4.11.3-35.el7"}
,{"name": "rsync.x86_64", "version": "3.1.2-6.el7_6.1"}
,{"name": "rsyslog.x86_64", "version": "8.24.0-34.el7"}
,{"name": "scap-security-guide.noarch", "version": "0.1.40-13.el7.centos"}
,{"name": "selinux-policy.noarch", "version": "3.13.1-229.el7_6.15"}
,{"name": "selinux-policy-targeted.noarch", "version": "3.13.1-229.el7_6.15"}
,{"name": "setools-libs.x86_64", "version": "3.3.8-4.el7"}
,{"name": "setup.noarch", "version": "2.8.71-10.el7"}
,{"name": "sg3_utils.x86_64", "version": "1.37-17.el7"}
,{"name": "sg3_utils-libs.x86_64", "version": "1.37-17.el7"}
,{"name": "shadow-utils.x86_64", "version": "2:4.1.5.1-25.el7_6.1"}
,{"name": "sudo.x86_64", "version": "1.8.23-3.el7"}
,{"name": "systemd.x86_64", "version": "219-62.el7_6.9"}
,{"name": "systemd-libs.x86_64", "version": "219-62.el7_6.9"}
,{"name": "systemd-sysv.x86_64", "version": "219-62.el7_6.9"}
,{"name": "tar.x86_64", "version": "2:1.26-35.el7"}
,{"name": "td-agent.x86_64", "version": "3.5.0-0.el7"}
,{"name": "teamd.x86_64", "version": "1.27-6.el7_6.1"}
,{"name": "tuned.noarch", "version": "2.10.0-6.el7_6.4"}
,{"name": "tzdata.noarch", "version": "2019b-1.el7"}
,{"name": "util-linux.x86_64", "version": "2.23.2-59.el7_6.1"}
,{"name": "vim-minimal.x86_64", "version": "2:7.4.160-6.el7_6"}
,{"name": "wpa_supplicant.x86_64", "version": "1:2.6-12.el7"}
,{"name": "xfsprogs.x86_64", "version": "4.5.0-19.el7_6"}
,{"name": "yum.noarch", "version": "3.4.3-161.el7.centos"}
,{"name": "yum-plugin-fastestmirror.noarch", "version": "1.1.31-50.el7"}
,{"name": "yum-utils.noarch", "version": "1.1.31-50.el7"}
,{"name": "zlib.x86_64", "version": "1.2.7-18.el7"}
],
"advisories": [
{"type": "enhancement", "name": "collectd-5.8.1-1.el7.x86_64"}
,{"type": "enhancement", "name": "collectd-nginx-5.8.1-1.el7.x86_64"}
,{"type": "bugfix", "name": "htop-2.2.0-3.el7.x86_64"}
],
"specs": {
"cpus": 2,
"mem": 4045772,
"disks": [
{"disk": "vda", "size": 161061273600}
]}
} }
