{
  "hosts": {
    "clarinvm": {
      "t_start": 1568862301,
      "t_end": 1568862343,
      "projects": {
        "nexus": {
          "t_start": 1568862302,
          "t_end": 1568862303,
          "state": "success",
          "path": "/home/deploy/nexus/backups",
          "lines": [
            "receiving incremental file list",
            "sent 22 bytes  received 121 bytes  95.33 bytes/sec",
            "total size is 0  speedup is 0.00"
          ]
        },
        "trac_clarin_nl": {
          "t_start": 1568862303,
          "t_end": 1568862304,
          "state": "success",
          "path": "/home/deploy/trac_clarin_nl/backups",
          "lines": [
            "receiving incremental file list",
            "trac/",
            "trac/trac_20190919_000105.tar.gz",
            "sent 47 bytes  received 3,741,907 bytes  2,494,636.00 bytes/sec",
            "total size is 117,814,467  speedup is 31.48"
          ]
        },
        "trac_clarin_eu": {
          "t_start": 1568862304,
          "t_end": 1568862330,
          "state": "success",
          "path": "/home/deploy/trac_clarin_eu/backups",
          "lines": [
            "receiving incremental file list",
            "svn/",
            "svn/svn_20190919_010102.dump.tar.gz",
            "trac/",
            "trac/trac_20190919_010249.tar.gz",
            "sent 74 bytes  received 797,186,059 bytes  30,082,495.58 bytes/sec",
            "total size is 25,521,887,411  speedup is 32.01"
          ]
        },
        "metrics": {
          "t_start": 1568862330,
          "t_end": 1568862331,
          "state": "success",
          "path": "/home/deploy/metrics/backups",
          "lines": [
            "receiving incremental file list",
            "sent 20 bytes  received 104 bytes  82.67 bytes/sec",
            "total size is 1,528,504,320  speedup is 12,326,647.74"
          ]
        },
        "ce-archive": {
          "t_start": 1568862331,
          "t_end": 1568862331,
          "state": "success",
          "path": "/home/deploy/ce-archive/backups",
          "lines": [
            "receiving incremental file list",
            "sent 20 bytes  received 93 bytes  226.00 bytes/sec",
            "total size is 1,115,449,113  speedup is 9,871,231.09"
          ]
        },
        "netkernel": {
          "t_start": 1568862331,
          "t_end": 1568862332,
          "state": "success",
          "path": "/home/deploy/netkernel/backups",
          "lines": [
            "receiving incremental file list",
            "sent 20 bytes  received 56 bytes  50.67 bytes/sec",
            "total size is 0  speedup is 0.00"
          ]
        },
        "discovery": {
          "t_start": 1568862332,
          "t_end": 1568862333,
          "state": "success",
          "path": "/home/deploy/discovery/backups",
          "lines": [
            "receiving incremental file list",
            "sent 20 bytes  received 56 bytes  50.67 bytes/sec",
            "total size is 0  speedup is 0.00"
          ]
        },
        "compreg": {
          "t_start": 1568862333,
          "t_end": 1568862343,
          "state": "success",
          "path": "/home/deploy/compreg/backups",
          "lines": [
            "receiving incremental file list",
            "./",
            "compreg_20190918_040503.sql.bz2",
            "compreg_20190918_070502.sql.bz2",
            "compreg_20190918_100502.sql.bz2",
            "compreg_20190918_130502.sql.bz2",
            "compreg_20190918_160502.sql.bz2",
            "compreg_20190918_190502.sql.bz2",
            "compreg_20190918_220503.sql.bz2",
            "compreg_20190919_010502.sql.bz2",
            "sent 181 bytes  received 300,599,548 bytes  28,628,545.62 bytes/sec",
            "total size is 22,067,270,494  speedup is 73.41"
          ]
        }
      }
    },
    "transip-vps2": {
      "t_start": 1568862343,
      "t_end": 1568862346,
      "projects": {
        "proxy-sp": {
          "t_start": 1568862345,
          "t_end": 1568862346,
          "state": "success",
          "path": "/home/deploy/proxy-sp/backups",
          "lines": [
            "protocol version mismatch -- is your shell clean?",
            "(see the rsync man page for an explanation)",
            "rsync error: protocol incompatibility (code 2) at compat.c(178) [Receiver=3.1.2]"
          ]
        }
      }
    },
    "transip-vps6": {
      "t_start": 1568862346,
      "t_end": 1568862347,
      "projects": {
        "proxy-sp": {
          "t_start": 1568862346,
          "t_end": 1568862347,
          "state": "success",
          "path": "/home/deploy/proxy-sp/backups",
          "lines": [
            "protocol version mismatch -- is your shell clean?",
            "(see the rsync man page for an explanation)",
            "rsync error: protocol incompatibility (code 2) at compat.c(178) [Receiver=3.1.2]"
          ]
        }
      }
    },
    "transip-vps8": {
      "t_start": 1568862347,
      "t_end": 1568862497,
      "projects": {
        "drupal": {
          "t_start": 1568862348,
          "t_end": 1568862496,
          "state": "success",
          "path": "/home/deploy/drupal/backups",
          "lines": [
            "receiving incremental file list",
            "database/archive/",
            "database/archive/backup_drupal_db_-localhost-_20191709T2307.sql.gz",
            "database/latest/",
            "database/latest/backup_drupal_db_-localhost-_20191809T2307.sql.gz",
            "htdocs/archive/",
            "htdocs/archive/backup_drupal_www_-localhost-_20191709T2307.tar.gz",
            "htdocs/latest/",
            "htdocs/latest/backup_drupal_www_-localhost-_20191809T2307.tar.gz",
            "sent 130 bytes  received 4,739,336,019 bytes  31,914,721.54 bytes/sec",
            "total size is 47,221,388,210  speedup is 9.96"
          ]
        },
        "postfix": {
          "t_start": 1568862496,
          "t_end": 1568862497,
          "state": "success",
          "path": "/home/deploy/postfix/backups",
          "lines": [
            "receiving incremental file list",
            "sent 20 bytes  received 56 bytes  50.67 bytes/sec",
            "total size is 0  speedup is 0.00"
          ]
        }
      }
    }
  }
}
