{
  "hosts": {
    "clarinvm": {
      "t_start": 1568948701,
      "t_end": 1568948739,
      "projects": {
        "nexus": {
          "t_start": 1568948702,
          "t_end": 1568948703,
          "state": "success",
          "path": "/home/deploy/nexus/backups",
          "lines": [
            "receiving incremental file list",
            "sent 22 bytes  received 121 bytes  286.00 bytes/sec",
            "total size is 0  speedup is 0.00"
          ]
        },
        "trac_clarin_nl": {
          "t_start": 1568948703,
          "t_end": 1568948704,
          "state": "success",
          "path": "/home/deploy/trac_clarin_nl/backups",
          "lines": [
            "receiving incremental file list",
            "trac/",
            "trac/trac_20190920_000105.tar.gz",
            "sent 47 bytes  received 3,741,909 bytes  2,494,637.33 bytes/sec",
            "total size is 117,814,461  speedup is 31.48"
          ]
        },
        "trac_clarin_eu": {
          "t_start": 1568948704,
          "t_end": 1568948727,
          "state": "success",
          "path": "/home/deploy/trac_clarin_eu/backups",
          "lines": [
            "receiving incremental file list",
            "svn/",
            "svn/svn_20190920_010102.dump.tar.gz",
            "trac/",
            "trac/trac_20190920_010242.tar.gz",
            "sent 74 bytes  received 797,195,747 bytes  33,923,226.43 bytes/sec",
            "total size is 25,521,891,047  speedup is 32.01"
          ]
        },
        "metrics": {
          "t_start": 1568948727,
          "t_end": 1568948728,
          "state": "success",
          "path": "/home/deploy/metrics/backups",
          "lines": [
            "receiving incremental file list",
            "sent 20 bytes  received 104 bytes  82.67 bytes/sec",
            "total size is 1,528,504,320  speedup is 12,326,647.74"
          ]
        },
        "ce-archive": {
          "t_start": 1568948728,
          "t_end": 1568948728,
          "state": "success",
          "path": "/home/deploy/ce-archive/backups",
          "lines": [
            "receiving incremental file list",
            "sent 20 bytes  received 93 bytes  226.00 bytes/sec",
            "total size is 1,115,449,113  speedup is 9,871,231.09"
          ]
        },
        "netkernel": {
          "t_start": 1568948728,
          "t_end": 1568948729,
          "state": "success",
          "path": "/home/deploy/netkernel/backups",
          "lines": [
            "receiving incremental file list",
            "sent 20 bytes  received 56 bytes  50.67 bytes/sec",
            "total size is 0  speedup is 0.00"
          ]
        },
        "discovery": {
          "t_start": 1568948729,
          "t_end": 1568948730,
          "state": "success",
          "path": "/home/deploy/discovery/backups",
          "lines": [
            "receiving incremental file list",
            "sent 20 bytes  received 56 bytes  50.67 bytes/sec",
            "total size is 0  speedup is 0.00"
          ]
        },
        "compreg": {
          "t_start": 1568948730,
          "t_end": 1568948739,
          "state": "success",
          "path": "/home/deploy/compreg/backups",
          "lines": [
            "receiving incremental file list",
            "./",
            "compreg_20190919_040502.sql.bz2",
            "compreg_20190919_070502.sql.bz2",
            "compreg_20190919_100503.sql.bz2",
            "compreg_20190919_130503.sql.bz2",
            "compreg_20190919_160502.sql.bz2",
            "compreg_20190919_190502.sql.bz2",
            "compreg_20190919_220502.sql.bz2",
            "compreg_20190920_010502.sql.bz2",
            "sent 181 bytes  received 300,599,773 bytes  31,642,100.42 bytes/sec",
            "total size is 22,367,779,414  speedup is 74.41"
          ]
        }
      }
    },
    "transip-vps2": {
      "t_start": 1568948739,
      "t_end": 1568948742,
      "projects": {
        "proxy-sp": {
          "t_start": 1568948740,
          "t_end": 1568948742,
          "state": "success",
          "path": "/home/deploy/proxy-sp/backups",
          "lines": [
            "protocol version mismatch -- is your shell clean?",
            "(see the rsync man page for an explanation)",
            "rsync error: protocol incompatibility (code 2) at compat.c(178) [Receiver=3.1.2]"
          ]
        }
      }
    },
    "transip-vps6": {
      "t_start": 1568948742,
      "t_end": 1568948743,
      "projects": {
        "proxy-sp": {
          "t_start": 1568948742,
          "t_end": 1568948743,
          "state": "success",
          "path": "/home/deploy/proxy-sp/backups",
          "lines": [
            "protocol version mismatch -- is your shell clean?",
            "(see the rsync man page for an explanation)",
            "rsync error: protocol incompatibility (code 2) at compat.c(178) [Receiver=3.1.2]"
          ]
        }
      }
    },
    "transip-vps8": {
      "t_start": 1568948743,
      "t_end": 1568948893,
      "projects": {
        "drupal": {
          "t_start": 1568948744,
          "t_end": 1568948892,
          "state": "success",
          "path": "/home/deploy/drupal/backups",
          "lines": [
            "receiving incremental file list",
            "database/archive/",
            "database/archive/backup_drupal_db_-localhost-_20191809T2307.sql.gz",
            "database/latest/",
            "database/latest/backup_drupal_db_-localhost-_20191909T2307.sql.gz",
            "htdocs/archive/",
            "htdocs/archive/backup_drupal_www_-localhost-_20191809T2307.tar.gz",
            "htdocs/latest/",
            "htdocs/latest/backup_drupal_www_-localhost-_20191909T2307.tar.gz",
            "sent 130 bytes  received 4,744,400,874 bytes  31,948,828.31 bytes/sec",
            "total size is 49,595,369,345  speedup is 10.45"
          ]
        },
        "postfix": {
          "t_start": 1568948892,
          "t_end": 1568948893,
          "state": "success",
          "path": "/home/deploy/postfix/backups",
          "lines": [
            "receiving incremental file list",
            "sent 20 bytes  received 56 bytes  50.67 bytes/sec",
            "total size is 0  speedup is 0.00"
          ]
        }
      }
    }
  }
}
